<?xml version="1.0" encoding="UTF-8"?>
<CustomTab xmlns="http://soap.sforce.com/2006/04/metadata">
    <description>Created by Lightning App Builder</description>
    <flexiPage>My_Training_Dashboard</flexiPage>
    <label>Dashboard szkoleniowy</label>
    <mobileReady>false</mobileReady>
    <motif>Custom20: Airplane</motif>
</CustomTab>
